[
  {
    "description": "MSR Office - Suite 1",
    "id": 1,
    "size_sqft": 3000,
    "site":{
      "id" : 1
    },
    "useTypes":{
      "id" : 54
    }
  },
  {
    "description": "MSR Office - Suite 2",
    "id": 2,
    "size_sqft": 3000,
    "site":{
      "id" : 1
    },
    "useTypes":{
      "id" : 54
    }
  },
  {
    "description": "MSR Office - Suite 3",
    "id": 3,
    "size_sqft": 3000,
    "site":{
      "id" : 1
    },
    "useTypes":{
      "id" : 54
    }
  },
  {
    "description": "MSR Data Center",
    "id": 4,
    "size_sqft": 4000,
    "site":{
      "id" : 1
    },
    "useTypes":{
      "id" : 4
    }
  },
  {
    "description": "Theaters",
    "id": 5,
    "size_sqft": 50000,
    "site":{
      "id" : 2
    },
    "useTypes":{
      "id" : 40
    }
  },
  {
    "description": "Watering Hole",
    "id": 6,
    "size_sqft": 15000,
    "site":{
      "id" : 2
    },
    "useTypes":{
      "id" : 16
    }
  },
  {
    "description": "TGI Fridays",
    "id": 7,
    "size_sqft": 35000,
    "site":{
      "id" : 3
    },
    "useTypes":{
      "id" : 16
    }
  },
  {
    "description": "Bowling",
    "id": 8,
    "size_sqft": 20000,
    "site":{
      "id" : 4
    },
    "useTypes":{
      "id" : 36
    }
  },
  {
    "description": "Tavern",
    "id": 9,
    "size_sqft": 10000,

    "site":{
      "id" : 4
    },
    "useTypes":{
      "id" : 16
    }
  },
  {
    "description": "Gaming",
    "id": 10,
    "size_sqft": 1000000,
    "site":{
      "id" : 5
    },
    "useTypes":{
      "id" : 37
    }
  },
  {
    "description": "Unce Unce",
    "id": 11,
    "size_sqft": 50000,
    "site":{
      "id" : 5
    },
    "useTypes":{
      "id" : 35
    }
  },
  {
    "description": "Ball Park",
    "id": 12,
    "size_sqft": 560000,
    "site":{
      "id" : 6
    },
    "useTypes":{
      "id" : 47
    }
  }
]